<?xml version="1.0" encoding="utf-8"?>
<!-- Generator: Adobe Illustrator 17.0.0, SVG Export Plug-In . SVG Version: 6.00 Build 0)  -->
<!DOCTYPE svg PUBLIC "-//W3C//DTD SVG 1.1//EN" "http://www.w3.org/Graphics/SVG/1.1/DTD/svg11.dtd">
<svg version="1.1" id="Layer_1" xmlns="http://www.w3.org/2000/svg" xmlns:xlink="http://www.w3.org/1999/xlink" x="0px" y="0px"
	 width="455.361px" height="127.652px" viewBox="0 7.136 455.361 127.652" enable-background="new 0 7.136 455.361 127.652"
	 xml:space="preserve">
<path fill="#C6C6C5" d="M72.901,64.327h12.023c0.102,0,0.722-0.07,0.734,0.044c0.026,0.229,0.053,0.46,0.078,0.69
	c0.135,1.18,0.27,2.361,0.405,3.543c0.493,4.299,0.984,8.598,1.476,12.897c0.581,5.081,1.163,10.164,1.744,15.246
	c0.425,3.704,0.847,7.409,1.272,11.113l0.227,1.982c0.015,0.126-0.227,0.385-0.291,0.486c-0.366,0.582-0.734,1.16-1.102,1.742
	c-2.579,4.082-5.156,8.162-7.734,12.242c-0.819,1.295-1.637,2.59-2.457,3.887c-1.853-2.934-3.706-5.867-5.561-8.801
	c-2.001-3.166-4.001-6.332-6.002-9.498c-0.052-0.083-0.005-0.211,0.005-0.302c0.041-0.351,0.08-0.699,0.12-1.049
	c0.158-1.375,0.315-2.748,0.473-4.121c0.515-4.499,1.029-8.998,1.544-13.496c0.576-5.034,1.152-10.067,1.728-15.099
	c0.389-3.409,0.779-6.816,1.17-10.224C72.803,65.184,72.852,64.755,72.901,64.327"/>
<path fill="#FFFFFF" d="M79.277,128.2c1.853-2.934,3.706-5.867,5.561-8.801c2.001-3.166,4.001-6.331,6.003-9.498
	c0.052-0.083,0.005-0.211-0.006-0.3c-0.041-0.351-0.08-0.699-0.12-1.05c-0.157-1.375-0.315-2.748-0.472-4.121
	c-0.515-4.497-1.029-8.998-1.544-13.495c-0.576-5.034-1.152-10.067-1.728-15.101c-0.39-3.409-0.78-6.816-1.17-10.224
	c-0.04-0.344-0.078-0.69-0.118-1.034c-0.025-0.222,0.027-0.249-0.217-0.249h-6.154c-0.072,0-0.033,4.098-0.033,4.36v11.348v14.975
	v15.244v12.153v5.701C79.277,128.109,79.277,128.2,79.277,128.2z"/>
<path fill="#FFFFFF" d="M128.58,62.417c3.654,0.573,6.978,2.54,9.135,5.43c2.225,2.984,3.09,6.8,2.383,10.406
	c-0.682,3.474-2.822,6.604-5.85,8.614c-0.162,0.109-0.329,0.213-0.496,0.314c0.059,0.297,0.116,0.594,0.174,0.892
	c0.113,0.596,0.223,1.192,0.33,1.79c0.202,1.149,0.391,2.299,0.567,3.451c0.176,1.156,0.337,2.315,0.483,3.477
	c0.076,0.608,0.15,1.215,0.219,1.824c0.018,0.153,0.033,0.305,0.051,0.457c0.021,0.199,0.107,0.279-0.109,0.355
	c-0.285,0.101-0.572,0.199-0.861,0.292c7.215-2.32,13.164-7.67,16.049-14.424c2.955-6.922,2.51-14.974-1.176-21.563
	c-1.768-3.161-4.244-5.946-7.22-8.119c-1.503-1.097-3.13-2.035-4.845-2.797c-0.871-0.386-1.766-0.727-2.677-1.02
	c-0.158-0.05-0.206-0.03-0.264-0.191c-0.042-0.12-0.086-0.24-0.13-0.362c-0.089-0.24-0.179-0.479-0.273-0.717
	c-0.202-0.515-0.416-1.027-0.643-1.535c-3.587-7.999-10.212-14.582-18.425-18.296c-2.565-1.16-5.269-2.041-8.041-2.617
	c5.789,7.575,10.819,15.684,14.99,24.183c1.24,2.526,2.404,5.088,3.491,7.678c0.258,0.617,0.513,1.235,0.762,1.855
	c0.139,0.346,0.234,0.286,0.605,0.344C127.398,62.232,127.989,62.324,128.58,62.417"/>
<path fill="#F5F5F5" d="M71.144,27.663c1.184,0.704,2.274,1.518,3.376,2.333c0.518,0.383,1.035,0.765,1.551,1.149
	c0.181,0.133,0.362,0.268,0.542,0.4c0.042,0.031,0.179,0.172,0.236,0.174c0.049,0.002,0.172-0.116,0.209-0.142
	c0.198-0.134,0.396-0.268,0.594-0.4c0.535-0.36,1.068-0.722,1.603-1.082c1.074-0.724,2.111-1.472,3.367-1.891
	c3.817-1.278,8.161,0.229,10.269,3.531c0.68,1.068,0.998,2.223,1.258,3.431c0.244,1.126,0.487,2.255,0.731,3.383
	c0.043,0.203-0.006,0.38,0.219,0.386c0.473,0.013,0.947,0.025,1.42,0.036c1.081,0.028,2.16,0.052,3.24,0.08
	c3.616,0.09,7.182,0.951,10.418,2.5c6.721,3.217,11.792,9.284,13.406,16.341c0.246,1.077,0.493,2.155,0.739,3.231
	c0.042,0.189,0.086,0.374,0.129,0.563c0.029,0.127,0.069,0.098,0.211,0.122l1.647,0.257c-3.527-8.806-7.949-17.279-13.18-25.268
	c-1.299-1.985-2.647-3.937-4.042-5.859c-0.698-0.958-1.407-1.911-2.128-2.854c-0.563-0.108-1.124-0.222-1.691-0.312
	c-0.227-0.037-0.725-0.018-0.824-0.222c-0.117-0.24-0.24-0.477-0.367-0.713c-1.802-3.324-4.585-6.132-7.943-8.045
	c-3.472-1.98-7.51-2.957-11.545-2.794c-2.473,0.1-4.922,0.617-7.204,1.538c-2.054-1.197-4.229-2.198-6.483-2.994
	c-6.139-2.166-12.81-2.746-19.254-1.671c3.517,2.163,6.922,4.497,10.198,6.989c1.635,1.243,3.239,2.522,4.807,3.841
	c0.785,0.658,1.56,1.327,2.327,2.003c0.366,0.323,0.728,0.646,1.09,0.974c0.181,0.165,0.361,0.328,0.54,0.492
	C70.769,27.317,70.952,27.558,71.144,27.663C71.872,28.096,71.144,27.663,71.144,27.663"/>
<path fill="#F5F5F5" d="M128.803,100.907c1.549-0.145,3.094-0.42,4.59-0.83c0.747-0.206,1.485-0.434,2.211-0.701
	c-0.087-0.812-0.182-1.623-0.282-2.435c-0.409-3.27-0.932-6.526-1.572-9.761c-2.021,1.224-4.347,1.928-6.733,2.059
	c-0.538,0.03-1.076,0.023-1.615,0.023h-6.178h-12.306h-0.054c0.552,2.483,1.022,4.985,1.408,7.497
	c0.195,1.266,0.368,2.535,0.522,3.807c0.05,0.412-0.058,0.46,0.29,0.46h5.424c4.022,0,8.046,0.05,12.067-0.002
	C127.321,101.015,128.064,100.975,128.803,100.907C129.019,100.886,128.552,100.929,128.803,100.907"/>
<path fill="#ECECEC" d="M36.115,36.572c3.826-6.683,10.915-11.344,18.809-12.289c2.749-0.329,5.557-0.217,8.27,0.326
	c2.859,0.573,5.427,1.671,7.95,3.053c-3.574-3.308-7.348-6.412-11.302-9.295c-1.98-1.443-4.006-2.831-6.072-4.162
	c-0.496-0.318-0.996-0.634-1.496-0.947c-0.101-0.063-0.521-0.409-0.629-0.389c-0.34,0.057-0.679,0.119-1.016,0.184
	c-1.198,0.233-2.383,0.523-3.552,0.867c-9.164,2.712-17.022,8.873-21.659,16.92C29.105,32.534,32.682,34.446,36.115,36.572"/>
<path fill="#ECECEC" d="M97.245,89.262c-1.25,0.763-2.491,1.535-3.807,2.192c-0.106,0.052-0.703,0.266-0.69,0.367
	c0.007,0.073,0.017,0.146,0.024,0.218c0.035,0.307,0.069,0.614,0.106,0.921c0.269,2.344,0.537,4.689,0.804,7.034
	c0.152,1.334,0.305,2.666,0.457,3.999c1.14-0.403,2.262-0.852,3.362-1.346c0.551-0.248,1.097-0.507,1.637-0.776
	c0.27-0.135,0.538-0.272,0.806-0.414c0.183-0.096,0.599-0.432,0.798-0.432h2.126h5.982c-0.295-2.54-0.675-5.07-1.138-7.586
	c-0.23-1.249-0.48-2.494-0.75-3.734c-0.11-0.502-0.054-0.446-0.507-0.446h-7.003C99.452,89.262,97.245,89.262,97.245,89.262z"/>
<path fill="#D9D9D9" d="M65.576,91.678c-1.448-0.693-2.807-1.526-4.17-2.359c-0.308-0.189-0.965-0.057-1.312-0.057h-7.352h-4.318
	c0.959,2.253,1.79,4.555,2.488,6.892c0.353,1.18,0.67,2.37,0.952,3.569c0.03,0.131,0.247,1.303,0.308,1.303h0.346H56.1h1.471h0.242
	c0.166,0,0.515,0.28,0.665,0.36c0.311,0.165,0.625,0.328,0.94,0.484c1.616,0.807,3.288,1.518,4.998,2.121
	c0.437-3.825,0.876-7.649,1.312-11.472c0.021-0.183,0.042-0.366,0.064-0.549C65.818,91.752,65.828,91.799,65.576,91.678"/>
<path fill="#D9D9D9" d="M29.412,54.785c0.907-0.382,1.815-0.765,2.723-1.146c0.373-0.158,0.746-0.315,1.118-0.472
	c0.075-0.032-0.019-0.709-0.022-0.789c-0.052-1.061-0.104-2.124-0.155-3.187c-0.103-2.096,0.085-4.204,0.552-6.253
	c0.499-2.192,1.337-4.281,2.431-6.264c0.113-0.206-0.284-0.314-0.456-0.42c-0.257-0.158-0.517-0.314-0.776-0.47
	c-0.563-0.336-1.13-0.667-1.698-0.992c-1.097-0.626-2.208-1.231-3.33-1.813c-1.126-0.586-2.262-1.149-3.41-1.689
	c-0.276-0.131-0.553-0.259-0.831-0.386c-0.2-0.093-0.164-0.02-0.26,0.147c-0.067,0.12-0.137,0.24-0.202,0.362
	c-0.288,0.52-0.561,1.05-0.821,1.584c-1.054,2.162-1.885,4.429-2.462,6.751c-0.346,1.399-0.593,2.813-0.781,4.239
	c-0.049,0.37-0.084,0.743-0.116,1.115c-0.018,0.191-0.031,0.381-0.046,0.572c-0.016,0.216-0.188,0.248-0.369,0.356
	c-0.673,0.404-1.33,0.833-1.968,1.286c-2.413,1.71-4.562,3.761-6.365,6.065c3.204,1.369,6.302,2.971,9.254,4.788
	c0.337,0.206,0.671,0.415,1.003,0.629c0.166,0.108,0.331,0.213,0.497,0.32c0.086,0.112,0.157,0.108,0.213-0.014
	c0.091-0.096,0.184-0.191,0.276-0.283c0.559-0.563,1.157-1.091,1.788-1.579C26.479,56.248,27.9,55.418,29.412,54.785"/>
<path fill="#C6C6C5" d="M79.277,61.852V50.831v-7.442c-3.236,2.341-6.47,4.68-9.706,7.02c-0.076,0.055-1.004,0.646-0.976,0.722
	c0.202,0.546,0.403,1.092,0.605,1.64c0.842,2.284,1.685,4.568,2.527,6.851c0.251,0.681,0.502,1.363,0.754,2.046
	c0.089,0.238,0.097,0.186,0.402,0.186h0.662L79.277,61.852L79.277,61.852z"/>
<path fill="#FFFFFF" d="M85.654,61.852c0.328,0,0.331,0.052,0.427-0.207c0.109-0.293,0.218-0.587,0.325-0.88
	c0.382-1.036,0.763-2.07,1.144-3.106c0.755-2.049,1.513-4.098,2.268-6.149c0.15-0.401,0.185-0.362-0.164-0.614
	c-0.688-0.499-1.377-0.996-2.066-1.495c-2.051-1.485-4.103-2.968-6.155-4.452c-0.719-0.52-1.438-1.04-2.157-1.56v11.022v6.285v1.149
	c0,0.014,2.046,0.007,2.181,0.007L85.654,61.852C85.654,61.851,85.654,61.852,85.654,61.852z"/>
<path fill="#C6C6C5" d="M50.199,93.913c-0.391-1.155-0.815-2.301-1.271-3.434c-0.052-0.131-0.413-1.215-0.509-1.215h-0.183h-6.429
	h-4.826c-7.395,0-14.26-4.332-17.213-10.835c-2.905-6.392-1.591-14.047,3.274-19.228c-2.066-1.349-4.206-2.592-6.41-3.722
	c-1.107-0.568-2.23-1.106-3.369-1.614c-0.274-0.123-0.547-0.243-0.823-0.362c-0.358-0.156-0.319-0.07-0.544,0.227
	c-0.372,0.492-0.728,0.995-1.069,1.508c-2.548,3.83-4.155,8.206-4.679,12.719c-0.502,4.309-0.018,8.71,1.434,12.819
	c0.699,1.976,1.615,3.878,2.729,5.671c0.552,0.887,1.152,1.748,1.797,2.577c0.31,0.397,0.628,0.786,0.957,1.167
	c0.076,0.089,0.699,0.693,0.665,0.761c0,0,4.926,5.024,9.982,7.215c0.101-0.052,0.787,0.337,0.916,0.392
	c0.567,0.237,1.142,0.457,1.723,0.663c3.535,1.242,7.243,1.803,11.001,1.803h6.12h8.687C51.643,98.623,50.989,96.246,50.199,93.913"
	/>
<path fill="#FFFFFF" d="M164.845,31.906c0.709-0.123,1.5-0.215,2.371-0.279c0.869-0.062,1.659-0.093,2.371-0.093
	c0.709,0,1.499,0.031,2.369,0.093c0.87,0.063,1.659,0.156,2.371,0.279V85.55c0,1.733,0.16,3.096,0.483,4.084
	c0.322,0.991,0.757,1.748,1.307,2.274c0.547,0.526,1.193,0.867,1.934,1.022c0.741,0.156,1.53,0.231,2.371,0.231
	c0.581,0,1.24-0.03,1.982-0.093c0.741-0.062,1.369-0.153,1.886-0.277c0.582,2.166,0.87,4.517,0.87,7.053
	c-0.904,0.309-2,0.511-3.29,0.603c-1.291,0.093-2.482,0.138-3.579,0.138c-1.872,0-3.612-0.217-5.224-0.651
	c-1.613-0.432-3.033-1.143-4.257-2.136c-1.226-0.989-2.194-2.322-2.903-3.991c-0.711-1.671-1.064-3.743-1.064-6.218L164.845,31.906
	L164.845,31.906z"/>
<path fill="#FFFFFF" d="M201.024,78.403c0.129,5.198,1.53,9.002,4.209,11.415c2.676,2.412,6.627,3.62,11.85,3.62
	c4.58,0,8.932-0.773,13.061-2.322c0.516,0.929,0.934,2.058,1.257,3.389c0.322,1.33,0.516,2.646,0.581,3.945
	c-2.128,0.867-4.466,1.515-7.012,1.949c-2.548,0.432-5.37,0.651-8.464,0.651c-4.515,0-8.384-0.603-11.609-1.811
	c-3.226-1.206-5.887-2.907-7.982-5.103c-2.095-2.196-3.627-4.795-4.595-7.796c-0.969-3-1.451-6.296-1.451-9.886
	c0-3.526,0.467-6.821,1.402-9.884c0.934-3.063,2.371-5.723,4.306-7.981c1.934-2.258,4.369-4.053,7.303-5.383
	c2.933-1.329,6.4-1.997,10.401-1.997c3.419,0,6.417,0.557,8.997,1.671c2.579,1.114,4.74,2.646,6.482,4.595
	c1.743,1.949,3.062,4.269,3.967,6.959c0.903,2.691,1.356,5.615,1.356,8.77c0,0.867-0.032,1.779-0.097,2.739
	c-0.065,0.958-0.13,1.779-0.194,2.46h-33.763L201.024,78.403L201.024,78.403z M225.597,71.535c0-1.731-0.242-3.388-0.725-4.964
	c-0.484-1.578-1.193-2.954-2.129-4.13s-2.128-2.118-3.579-2.83c-1.452-0.711-3.177-1.068-5.175-1.068
	c-3.936,0-6.951,1.144-9.046,3.434c-2.096,2.289-3.372,5.475-3.822,9.56L225.597,71.535L225.597,71.535L225.597,71.535z"/>
<path fill="#FFFFFF" d="M253.942,75.247l-11.705-22.922c1.482-0.246,3.158-0.372,5.031-0.372c0.902,0,1.789,0.032,2.66,0.093
	c0.87,0.062,1.789,0.156,2.758,0.279l10.255,23.016l-12.383,24.594c-0.839,0.124-1.661,0.215-2.467,0.279
	c-0.808,0.062-1.597,0.093-2.371,0.093c-0.904,0-1.775-0.031-2.612-0.093c-0.839-0.063-1.708-0.156-2.611-0.279L253.942,75.247z
	 M263.713,75.34l10.351-23.016c0.904-0.124,1.806-0.217,2.708-0.279c0.904-0.062,1.806-0.093,2.708-0.093
	c1.743,0,3.354,0.124,4.837,0.372l-11.512,22.646l13.446,24.965c-0.904,0.124-1.774,0.215-2.611,0.279
	c-0.84,0.062-1.709,0.093-2.612,0.093c-1.742,0-3.354-0.124-4.837-0.372L263.713,75.34z"/>
<path fill="#FFFFFF" d="M295.636,31.906c0.709-0.123,1.5-0.215,2.371-0.279c0.869-0.062,1.659-0.093,2.371-0.093
	c0.709,0,1.515,0.031,2.419,0.093c0.903,0.063,1.707,0.156,2.419,0.279v27.658c0.582-0.866,1.307-1.794,2.176-2.786
	c0.87-0.989,1.934-1.902,3.193-2.737c1.258-0.835,2.708-1.515,4.354-2.041c1.644-0.525,3.467-0.789,5.466-0.789
	c5.673,0,9.883,1.563,12.625,4.686c2.741,3.126,4.112,7.75,4.112,13.875v30.163c-0.71,0.124-1.5,0.215-2.371,0.279
	c-0.869,0.062-1.661,0.093-2.371,0.093c-0.71,0-1.5-0.031-2.369-0.093c-0.87-0.063-1.661-0.156-2.371-0.279V72.279
	c0-4.394-0.759-7.626-2.273-9.7c-1.516-2.072-3.822-3.109-6.916-3.109c-1.742,0-3.42,0.294-5.031,0.882
	c-1.613,0.589-3.033,1.517-4.257,2.785c-1.227,1.269-2.194,2.925-2.904,4.966c-0.71,2.042-1.064,4.517-1.064,7.424v24.408
	c-0.71,0.124-1.516,0.215-2.419,0.279c-0.904,0.062-1.708,0.093-2.419,0.093c-0.645,0-1.42-0.031-2.322-0.093
	c-0.904-0.063-1.708-0.156-2.419-0.279V31.907C295.634,31.906,295.636,31.906,295.636,31.906z"/>
<path fill="#FFFFFF" d="M351.068,52.323c0.71-0.124,1.515-0.217,2.419-0.279c0.903-0.062,1.676-0.093,2.321-0.093
	c0.709,0,1.515,0.031,2.419,0.093c0.902,0.062,1.706,0.156,2.418,0.279v26.08c0,2.97,0.292,5.429,0.871,7.377
	c0.582,1.949,1.45,3.48,2.611,4.595c1.161,1.115,2.58,1.888,4.257,2.322c1.677,0.433,3.611,0.649,5.804,0.649
	c3.29,0,6.095-0.339,8.418-1.02V52.323c0.708-0.124,1.499-0.217,2.369-0.279c0.87-0.062,1.659-0.093,2.371-0.093
	c0.709,0,1.5,0.031,2.371,0.093c0.869,0.062,1.659,0.156,2.371,0.279v46.126c-2.259,0.619-4.951,1.206-8.078,1.763
	c-3.129,0.557-6.37,0.836-9.723,0.836c-3.16,0-6.142-0.263-8.949-0.789c-2.806-0.525-5.273-1.593-7.4-3.202
	c-2.128-1.607-3.806-3.867-5.03-6.773c-1.227-2.907-1.838-6.744-1.838-11.509L351.068,52.323L351.068,52.323z"/>
<path fill="#FFFFFF" d="M407.078,31.906c0.709-0.123,1.499-0.215,2.369-0.277c0.871-0.062,1.659-0.093,2.371-0.093
	c0.71,0,1.515,0.031,2.419,0.093c0.902,0.062,1.706,0.156,2.419,0.277v26.173c1.16-1.857,2.966-3.464,5.418-4.826
	c2.45-1.361,5.418-2.042,8.9-2.042c2.965,0,5.707,0.465,8.221,1.394c2.517,0.928,4.676,2.367,6.482,4.315
	c1.805,1.949,3.208,4.424,4.209,7.424c0.999,3.001,1.499,6.542,1.499,10.627c0,8.167-2.403,14.558-7.207,19.165
	c-4.805,4.609-11.723,6.912-20.75,6.912c-2.839,0-5.756-0.263-8.755-0.789c-2.999-0.525-5.532-1.128-7.595-1.811L407.078,31.906
	L407.078,31.906L407.078,31.906z M416.656,92.232c1.16,0.372,2.401,0.634,3.725,0.789c1.32,0.156,2.693,0.231,4.113,0.231
	c2.385,0,4.595-0.355,6.625-1.068c2.032-0.711,3.788-1.794,5.275-3.249c1.482-1.452,2.66-3.31,3.531-5.567
	c0.869-2.258,1.307-4.933,1.307-8.027c0-5.135-0.936-9.126-2.807-11.972s-4.966-4.269-9.286-4.269c-1.484,0-2.951,0.231-4.401,0.696
	c-1.451,0.465-2.791,1.208-4.015,2.228c-1.228,1.022-2.21,2.382-2.951,4.083c-0.744,1.702-1.112,3.759-1.112,6.172v19.953
	C416.659,92.232,416.656,92.232,416.656,92.232z"/>
</svg>
